<svg width="416" height="416" viewBox="0 0 416 416" fill="none" xmlns="http://www.w3.org/2000/svg">
<path fill-rule="evenodd" clip-rule="evenodd" d="M336.199 211.695H367.233C367.233 213.173 366.863 215.02 366.863 216.498C365.016 237.926 356.149 256.768 340.632 272.284C322.899 290.387 301.471 299.254 277.087 298.146C256.028 297.407 237.925 290.018 222.778 276.348V415.631C217.975 416 212.803 416 208 416C202.458 416 197.286 415.631 192.114 415.261C189.528 415.261 187.311 414.892 184.725 414.522C82.0178 403.439 1.84725 316.988 0 211.695C0 210.586 0 209.109 0 208C0 206.892 0 205.414 0 204.306C1.84725 99.0127 82.3872 12.5616 185.094 1.10864V29.1868C97.9041 40.2703 29.556 114.16 27.7087 204.306C27.7087 205.414 27.7087 206.892 27.7087 208C27.7087 209.109 27.7087 210.586 27.7087 211.695C29.556 301.471 97.5347 375.73 184.725 386.814C187.311 387.183 189.528 387.553 192.114 387.553V286.323C195.439 283.737 198.764 280.782 201.719 277.826C215.389 264.526 223.886 249.009 227.95 231.645C230.906 238.295 234.97 244.576 240.142 250.117C250.856 261.57 263.417 266.743 278.934 266.743H280.043C295.19 266.743 308.49 261.201 319.204 249.748C327.702 240.881 333.243 231.276 335.091 219.453C335.46 216.867 335.83 214.281 335.83 211.695C336.199 212.064 336.199 212.064 336.199 211.695Z" fill="white"/>
<path fill-rule="evenodd" clip-rule="evenodd" d="M416 204.305C414.153 99.0124 333.613 12.5613 230.906 1.10835C228.32 0.738899 226.103 0.738899 223.517 0.369449C218.345 8.25783e-08 213.172 0 208 0C202.828 0 197.656 8.25783e-08 192.483 0.369449V139.652C177.336 125.982 158.863 118.593 138.174 117.854C113.791 117.115 92.3625 125.613 74.6289 143.716C63.9149 154.799 56.1565 167.361 52.0925 181.03C51.7231 182.138 51.7231 183.247 51.3536 184.355C50.9842 185.464 50.6147 186.572 50.6147 187.68C50.2453 189.527 49.8758 191.375 49.5064 193.591C49.5064 193.961 49.5064 194.33 49.1369 195.069C49.1369 196.178 48.7675 197.655 48.7675 198.764C48.7675 199.503 48.7675 200.241 48.398 200.98C48.398 202.089 48.398 203.567 48.0286 204.675H79.0623C79.0623 203.197 79.4318 201.719 79.4318 199.872C79.4318 198.764 79.8012 197.655 79.8012 196.916C79.8012 196.916 79.8012 196.916 79.8012 196.547C79.8012 195.439 80.1707 194.33 80.5401 193.591C80.9096 191.375 81.6485 189.527 82.3874 187.311C82.7568 186.202 83.1263 185.464 83.4957 184.355C83.8652 183.247 84.2346 182.508 84.9735 181.4C87.5597 175.858 91.2541 170.686 96.057 166.252C107.14 155.169 120.441 149.257 135.219 149.257H136.327C151.844 149.257 164.405 154.799 175.119 166.252C179.553 171.055 183.247 176.227 185.833 181.4C186.203 182.508 186.942 183.616 187.311 184.725C187.68 183.616 187.68 182.508 188.05 181.4C192.114 165.513 200.611 151.105 213.542 138.543C216.497 135.588 219.823 132.632 223.148 130.046V28.4476C225.734 28.817 227.95 28.817 230.537 29.1865C318.096 40.27 386.075 114.529 387.922 204.305C387.922 205.414 387.922 206.892 387.922 208C387.922 209.108 387.922 210.586 387.922 211.694C386.075 301.84 317.727 376.099 229.798 387.183V414.892C332.874 403.808 413.784 317.357 415.631 211.694C415.631 210.586 415.631 209.108 415.631 208C416 206.892 416 205.414 416 204.305Z" fill="white"/>
<path fill-rule="evenodd" clip-rule="evenodd" d="M342.85 144.824C326.594 127.46 305.905 118.224 282.26 117.485C281.152 117.485 280.044 117.485 278.935 117.485C275.98 117.485 273.024 117.485 270.068 117.854C268.96 117.854 267.852 118.224 266.743 118.224C264.157 118.593 261.941 118.963 259.354 119.702C256.768 120.44 254.552 121.179 251.965 121.918C251.596 121.918 251.596 121.918 251.227 122.288C239.404 126.352 228.321 133.371 217.976 143.346C206.893 154.43 199.504 167.361 195.07 181.03C192.484 189.527 191.745 197.286 191.376 204.305C191.376 206.892 191.006 209.108 191.006 211.694C190.637 217.236 189.898 222.408 188.42 227.95C183.987 242.359 173.642 253.812 160.711 260.831C153.322 264.895 145.195 266.742 136.697 266.742C135.589 266.742 134.85 266.742 133.742 266.742C118.225 266.373 105.663 260.092 94.9494 248.27C85.3437 237.556 80.1715 225.364 79.4326 211.325H48.3988C49.1377 234.231 57.2656 254.181 72.7825 270.806C89.0382 288.17 109.358 297.407 133.003 298.146C134.111 298.146 135.219 298.146 136.328 298.146C139.283 298.146 142.239 298.146 145.195 297.776C146.303 297.776 147.411 297.407 148.52 297.407C151.106 297.037 153.322 296.668 155.909 295.929C156.647 295.929 157.386 295.559 158.125 295.559C158.495 295.559 158.864 295.559 159.234 295.19C159.973 294.821 161.081 294.821 161.82 294.451C163.667 293.712 165.884 292.973 167.731 292.234C178.076 287.801 187.681 281.52 196.917 272.654C209.848 259.723 219.454 243.837 222.04 225.733C222.779 221.3 222.779 216.497 223.148 211.694C223.148 209.108 223.518 206.892 223.518 204.305C223.887 201.35 224.257 198.025 224.626 195.069C228.69 173.641 244.576 155.538 266.005 149.996C270.068 148.888 274.132 148.519 278.196 148.519C279.305 148.519 280.044 148.519 281.152 148.519C296.669 148.888 309.23 155.169 319.944 166.991C329.55 177.705 334.722 189.897 335.461 203.936H366.495C366.495 181.4 358.367 161.449 342.85 144.824Z" fill="white"/>
</svg>
